{
  "id": 122,
  "sku" : "122CSWC",
  "name" : "Classy and Simple Wall Clock",
  "image" : "f2.jpg",
  "summary" : "An enclosed Wall Clock with a face that features both classic roman numerals and numbers.",
  "description": "This piece is elegant and simple with its 5 roses and pine branches hugging the clock face. Perfect for hanging or propping, this one is sure to add understated elegance to any space.",
  "price" : 149.99,
  "inventory" : 22,
  "category" : "preserved florals",
  "subcategory" : "framed"
  }
