{
  "id" : 211,
  "sku" : "211SSC",
  "name" : "Strawberry Smoothie Candle",
  "image" : "cnd1.jpg",
  "summary" : "A candle that looks absolutely delicious",
  "description": "This candle was made with all natural soy wax and essential oils. It is sure to please with its tarty scent and delicious texture. ",
  "price" : 29.99,
  "inventory" : 43,
  "category" : "candles",
  "subcategory" : "lavender"
}